%YAML 1.1
%TAG !u! tag:unity3d.com,2011:
--- !u!1045 &1
EditorBuildSettings:
  m_ObjectHideFlags: 0
  serializedVersion: 2
  m_Scenes:
  - enabled: 1
    path: Assets/Scenes/Start.unity
    guid: de531991027611f45b81461a53e61223
  - enabled: 1
    path: Assets/Scenes/Settings.unity
    guid: cbed15b7cde8959449f55fe72ee82be9
  - enabled: 1
    path: Assets/Scenes/Level1.unity
    guid: d48d33d10a1db164f821cc2483bfbac5
  - enabled: 1
    path: Assets/Scenes/End.unity
    guid: 7b3fe191279f3844fb04d42ace595c9b
  - enabled: 1
    path: Assets/Scenes/Level2.unity
    guid: 8b8c26ef423f770c395a487e65c79bb0
  - enabled: 1
    path: Assets/Scenes/Level3.unity
    guid: d9bc0df553aed454383b567f59db8cfc
  m_configObjects: {}
